{
    "about": {
        "title": "О компании1",
        "ololo": "fdsf",
        "t1": "Фильмы и сериалы на родном языке",
        "t2": "START — это доступный по всему миру онлайн видеосервис лучших российских фильмов, сериалов и мультфильмов.",
        "t3": "Смотрите на START.RU:"
        },
    "about.title2": "О компании",
    "about.t14": "Фильмы и сериалы на родном языке",
    "about.t2": "START — это доступный по всему миру онлайн видеосервис лучших российских фильмов, сериалов и мультфильмов.",
    "about.t3": "Смотрите на START.RU:",
    "about.t4": "Оригинальные сериалы, снятые студией START;",
    "about.t5": "Тысячи лучших фильмов, сериалов и мультфильмов;",
    "about.t6": "Видео в качестве Full HD 1080;",
    "about.t7": "Новинки и классика кино в единой подписке;",
    "about.t8": "Без рекламы и дополнительных платежей.",
    "about.t9": "Все новые пользователи получают первые 7 дней бесплатно!",
    "about.t10": "Вы можете начать смотреть новую серию дома, а продолжить в дороге — с того места, где остановились. Меняйте устройства и смотрите START:",
    "about.t11": "на смартфоне",
    "about.t12": "на компьютере",
    "about.t13": "на планшете",
    "about.t14": "на Smart TV",
    "about.t15": "на приставке kartina.tv",
    "about.t16": "Смотрите START во всем мире!",
    "about.t17": "Наши партнеры:",
    "about.t18": "Kartina.tv",
    "about.t19": "Мегафон",
    "about.t20": "Одноклассники",
    "about.t21": "НетБайНет (NetByNet)",
    "about.t22": "Контактная информация:",
    "about.t23": "По техническим вопросам:",
    "about.t24": "Телефонные номера Центра поддержки:",
    "about.t24_1": " - звонок бесплатный",
    "about.t25": "Россия",
    "about.t26": "Испания",
    "about.t27": "Израиль",
    "about.t28": "США и Канада",
    "about.t29": "Германия",
    "about.t30": "Центр поддержки в Телеграм",
    "about.t31": "По вопросам сотрудничества:",
    "account.title": "Настройки",
    "account.personalDataRemember": "Мы всё запомнили!",
    "account.accountChangeEmail": "Поменяли. Ждите письмо на новый e-mail. Там будет ссылка для его подтверждения",
    "account.accountEmail": "Всё добавили!",
    "account.accountChangePassword": "Пароль изменён",
    "account.accountAddProfile": "Профиль создан",
    "account.accountDeleteProfile": "Профиль удалён",
    "account.personal_data": "Персональные данные",
    "account.account": "Аккаунт",
    "account.profile": "Профили",
    "account.subscription": "Подписка",
    "account.support": "Центр поддержки",
    "account.main": "Мужской",
    "account.femain": "Женский",
    "account.name": "Имя",
    "account.gender": "Пол",
    "account.bithday": "Дата рождения",
    "account.change_disabled": "Редактирование недоступно",
    "account.tell_about_yourself": "Рассказать о себе",
    "account.mistaken": "Ошиблись, указывая пол или дату рождения? Изменить их можно, обратившись Центр поддержки.",
    "account.change": "Изменить",
    "account.add": "Добавить",
    "account.cancel": "Отменить",
    "account.disable": "Выключить",
    "account.password": "Пароль",
    "account.edit": "Редактировать",
    "account.phone": "Телефон",
    "account.enter_new": "Введите новый",
    "account.enter_account_password": "Введите пароль от аккаунта на START",
    "account.need_more_symbols": "Кажется, нескольких символов не хватает",
    "account.passwords_do_not_match": "Пароли не совпадают. Попробуйте еще раз",
    "account.do_not_match": "Что-то не сходится! Проверьте пароль.",
    "account.password_new_same": "Новый пароль совпадает со старым.",
    "account.change_password": "Изменить пароль",
    "account.enter_current_password": "Введите текущий пароль",
    "account.enter_new_password": "Введите новый пароль",
    "account.repeat_new_password": "Введите новый пароль ещё раз",
    "account.CODE_NOT_FOUND": "Что-то не сходится! Мы отправляли другой код",
    "account.PHONE_NOT_CHANGED": "Новый номер совпадает со старым",
    "account.INVALID_PASSWORD": "Что-то не сходится! Проверьте номер телефона и пароль",
    "account.WRONG_USER": "Что-то не сходится! Проверьте код из смс и повторите попытку",
    "account.PHONE_ALREADY_USED": "Этот номер телефона уже зарегистрирован",
    "account.Maximum number of SMS messages was sent in last hour": "Превышено количество запросов кода",
    "account.User has already been registered": "Этот e-mail уже зарегистрирован",
    "account.SMS_SEND_DISABLED": "Помехи от летящих мимо комет! Регистрируйтесь через e-mail, так надёжнее",
    "account.SMS_SERVER_ERROR": "Помехи от летящих мимо комет! Регистрируйтесь через e-mail, так надёжнее",
    "account.SMS_LIMIT_EXCEEDED": "Запросить новый код можно через час. А вы знали, что на нашем YouTube-канале есть бесплатные эпизоды некоторых сериалов?",
    "account.Email has wrong format": "Некорректный формат e-mail",
    "account.Phone number is invalid.": "Введите номер в международном формате, вот так: +7XXXXXXXXXX",
    "account.forgot_to_enter_phone": "Вы забыли ввести номер телефона",
    "account.something_went_wrong": "Что-то пошло не так...",
    "account.add_phone": "Добавить номер телефона",
    "account.change_phone": "Изменить телефон",
    "account.enter_sms": "Введите код из SMS",
    "account.add_profile": "Добавить профиль",
    "account.remove_profile": "Удалить профиль",
    "account.delete_account": "Удалить аккаунт",
    "account.confirm_delete_account": "Уверены что хотите удалить аккаунт?",
    "account.avatar_select": "Выбрать аватар",
    "account.profile_name": "Имя профиля",
    "account.add_profile_name": "Придумайте имя профиля",
    "account.fill_field": "Заполните поле",
    "account.child_profile": "Детский профиль",
    "account.renew_subscription": "Возобоновить подписку",
    "account.subscription_type": "Тип подписки",
    "account.more": "Подробнее",
    "account.pay_subscription": "Оплатить подписку",
    "account.ttk": "Подписка START на ТТК",
    "account.your_subscription": "Ваша подписка",
    "account.payment_history": "Список платежей",
    "account.reccurent": "Автопродление",
    "account.disable_reccurent": "Выключить автопродление подписки?",
    "account.confirm_disable_reccurent_1": "Уверены, что хотите выключить продление своей подписки?",
    "account.confirm_disable_reccurent_2": "Ваши любимые сериалы и фильмы станут недоступны",
    "AddEmailPopup.title": "Подписаться на обновления",
    "AddEmailPopup.text": "Оставьте свой адрес e-mail",
    "AddEmailPopup.error-email": "Некорректный формат e-mail.",
    "AddEmailPopup.button": "Подписаться",
    "benefits.b_1_t": "7 дней бесплатно",
    "benefits.b_1_d": "Мы даем вам попробовать START бесплатно, чтобы вы успели полюбить наш сервис.",
    "benefits.b_2_t": "Единая подписка на START",
    "benefits.b_2_d": "Смотрите все фильмы и сериалы на START без рекламы и без дополнительных, скрытых платежей.",
    "benefits.b_3_t": "Видео в качестве Full HD 1080",
    "benefits.b_3_d": "Идеальная картинка даст больше удовольствия от просмотра. Даже классика советского кино у нас в высоком качестве.",
    "benefits.b_4_t": "Эксклюзивные премьеры оригинальных проектов",
    "benefits.b_4_d": "Мы ориентируемся на вкусы зрителей и свободны в выборе жанров и тем.",
    "benefits.b_5_t": "В любой точке мира",
    "benefits.b_5_d": "Смотрите все фильмы и сериалы в любой точке мира по единой подписке.",
    "benefits.b_6_t": "Безопасный детский профиль",
    "benefits.b_6_d": "Отдельный раздел с любимыми мультфильмами без рекламы и доступа ко взрослому контенту",
    "breadcrumbs.main": "Главная",
    "breadcrumbs.account": "Настройки",
    "breadcrumbs.payment_history": "История платежей",
    "breadcrumbs.cartoons": "Мультфильмы",
    "breadcrumbs.movies": "Фильмы",
    "breadcrumbs.series": "Сериалы",
    "breadcrumbs.collection": "смотреть онлайн",
    "breadcrumbs.favorites": "Избранное",
    "breadcrumbs.genres": "Каталог",
    "breadcrumbs.online": "онлайн",
    "breadcrumbs.search": "Поиск",
    "breadcrumbs.partners": "Партнерам",
    "breadcrumbs.domru": "Дом.ru",
    "breadcrumbs.ways": "Где смотреть",
    "buttons.btn_try": "Попробовать бесплатно",
    "buttons.btn_show_more": "Показать еще",
    "buttons.btn_trailer": "Смотреть трейлер",
    "buttons.btn_show_details": "Подробнее",
    "buttons.register": "Зарегистрироваться",
    "buttons.sign": "Войти",
    "buttons.recover": "Восстановить",
    "buttons.pay_subscr": "Оплатить подписку",
    "buttons.collapse": "Свернуть",
    "buttons.catalog": "Каталог",
    "buttons.search": "Поиск",
    "buttons.subscribe": "Подписаться",
    "buttons.unsubscribe": "Отписаться",
    "buttons.agree": "Согласен",
    "buttons.disagree": "Не согласен",
    "buttons.cancel": "Отмена",
    "buttons.oк": "Ок",
    "buttons.on_main": "На главную",
    "buttons.activate": "Активировать",
    "buttons.confirm": "Подтвердить",
    "buttons.resend_sms": "Отправить SMS повторно",
    "buttons.to_watch": "Перейти к просмотру",
    "buttons.save_and_watch": "Сохранить и начать пользоваться",
    "buttons.try_7_days": "Попробовать 7 дней бесплатно",
    "buttons.continue": "Продолжить"
}
